﻿2019-05-16T10:21:06.6506244+10:00;VSTestExecutionThread;Info;SpecFlow+Runner execution started
2019-05-16T10:21:06.6506244+10:00;VSTestExecutionThread;Info;SpecFlow+Runner 3.0.337 in Framework clr40 in x86 mode execution started
2019-05-16T10:21:06.6506244+10:00;VSTestExecutionThread;Info;TestAdapter Location: C:\Users\09946103\Downloads\kim_automation\packages\SpecRun.Runner.3.0.337\tools\net45\TechTalk.SpecRun.VisualStudio.TestAdapter.dll
2019-05-16T10:21:07.3739127+10:00;VSTestExecutionThread;Info;SpecRun: running tests in C:\Users\09946103\Downloads\kim_automation\KIM_Automation\bin\Debug\KIM_Automation.dll
2019-05-16T10:21:07.3749141+10:00;VSTestExecutionThread;Info;Output folder configured to "C:\Users\09946103\Downloads\kim_automation\TestResults" (default)
2019-05-16T10:21:07.3749141+10:00;VSTestExecutionThread;Info;Profile: KIM_Automation
2019-05-16T10:21:07.4189444+10:00;VSTestExecutionThread;Info;Log file path: C:\Users\09946103\Downloads\kim_automation\TestResults\KIM_Automation_KIM_Automation_2019-05-16T102107.log
2019-05-16T10:21:07.4299493+10:00;VSTestExecutionThread;Info;SpecFlow+Runner Evaluation Mode: Please purchase at http://www.specflow.org/plus to remove test execution delay.
2019-05-16T10:21:07.4399565+10:00;Thread#14;Info;Checking license
2019-05-16T10:21:07.4639751+10:00;Thread#14;Info;Evaluation mode: test execution starts in 5 seconds... (this delay is removed in the registered version)
2019-05-16T10:21:12.4656262+10:00;Thread#14;Info;Evaluation delay finished.
2019-05-16T10:21:12.4836365+10:00;Thread#14;Info;License check completed
2019-05-16T10:21:12.4836365+10:00;Thread#14;Info;starting test run
2019-05-16T10:21:12.5388832+10:00;Thread#14;Info;Discovering target: Default
2019-05-16T10:21:12.5388832+10:00;Thread#14;Info;Discovering tests from assembly: C:\Users\09946103\Downloads\kim_automation\KIM_Automation\bin\Debug\KIM_Automation.dll
2019-05-16T10:21:14.8909457+10:00:Appdomain Disposed
2019-05-16T10:21:14.8909457+10:00;Thread#14;Info;Discovered tests from assembly: C:\Users\09946103\Downloads\kim_automation\KIM_Automation\bin\Debug\KIM_Automation.dll
2019-05-16T10:21:14.8929476+10:00:Test Suite Dump
2019-05-16T10:21:14.9019547+10:00:#0: KIM_Automation/KIM_Automation - 
2019-05-16T10:21:14.9019547+10:00:#1: Default - 
2019-05-16T10:21:14.9019547+10:00:#2: KIM_Automation - 
2019-05-16T10:21:14.9019547+10:00:#3: Smoke Test - 
2019-05-16T10:21:14.9760051+10:00:#4: KIM end to end scenario - TestAssembly:KIM_Automation/Feature:Smoke+Test/Scenario:KIM+end+to+end+scenario
2019-05-16T10:21:14.9760051+10:00:End: Test Suite Dump
2019-05-16T10:21:15.0120305+10:00:Thread#0:Scheduler: get next test for thread 0
2019-05-16T10:21:15.0150342+10:00:Thread#:Scheduler: testitem #4 from normal test queue 
2019-05-16T10:21:15.0150342+10:00:Thread#0:Scheduler: considering testitem #4 for thread 0
2019-05-16T10:21:15.0210381+10:00:Thread#0:TestItem#4:testItemMatchesCurrentTestThread:UnSpecific
2019-05-16T10:21:15.0210381+10:00:Thread#0:TestItem#4:runsOnOneOtherThreadSpecific:False
2019-05-16T10:21:15.0210381+10:00:Thread#0:TestItem#4:runsOnOneOtherThreadUnspecific:False
2019-05-16T10:21:15.0210381+10:00:Thread#0:Scheduler: using testitem #4 for thread 0
2019-05-16T10:21:15.0220395+10:00:Thread#0:Scheduler: Test #4 is scheduled for thread
2019-05-16T10:21:15.0230400+10:00:Thread#0:Scheduler: with testItemExecutionIndex 0
2019-05-16T10:21:15.0260419+10:00:Thread #0: creating new test thread executor for KIM_Automation, Version=1.0.0.0, Culture=neutral, PublicKeyToken=null (target: Default)
2019-05-16T10:21:15.0290438+10:00:Thread #0: Creating test assembly executor for execution model AppDomain
2019-05-16T10:21:15.0300443+10:00:Thread #0: Creating test assembly executor for execution model AppDomain
2019-05-16T10:21:15.0300443+10:00:using TechTalk.SpecRun.Framework.Execution.InProcess.InProcAppDomainTestAssemblyExecutorHost to execute tests
2019-05-16T10:21:15.1621578+10:00:Thread#0: Test #4/0 is started on thread #0
2019-05-16T10:21:15.8309124+10:00:Thread#0:T:-> Loading plugin C:\Users\09946103\Downloads\kim_automation\KIM_Automation\bin\Debug\SpecRun.Runtime.SpecFlowPlugin.dll
2019-05-16T10:21:15.8769459+10:00:Thread#0:T:-> Using default config
2019-05-16T10:21:16.0921008+10:00:Thread#0:B:Given I navigate to Kim sharepoint aplication homepage
2019-05-16T10:22:56.9479699+10:00:Thread#0:T:done: SmokeKimSteps.GivenINavigateToKimSharepointAplicationHomepage() (100.7s)
2019-05-16T10:22:58.3537676+10:00:Thread#0:B:And I login using internal username and password
2019-05-16T10:23:08.7269904+10:00:Thread#0:T:done: SmokeKimSteps.GivenILoginUsingInternalUsernameAndPassword() (10.4s)
2019-05-16T10:23:10.5884920+10:00:Thread#0:B:When I press login button
2019-05-16T10:23:20.4117615+10:00:Thread#0:T:done: SmokeKimSteps.WhenIPressLoginButton() (9.8s)
2019-05-16T10:23:21.8972293+10:00:Thread#0:B:And I am logged in successfully
2019-05-16T10:23:28.6049288+10:00:Thread#0:T:done: SmokeKimSteps.WhenIAmLoggedInSuccessfully() (6.6s)
2019-05-16T10:23:43.5350981+10:00:Thread#0:B:And I click on service providers
2019-05-16T10:24:10.2844854+10:00:Thread#0:T:done: SmokeKimSteps.WhenIClickOnServiceProviders() (26.7s)
2019-05-16T10:24:12.6615263+10:00:Thread#0:B:And I search for an organisation and click on it
2019-05-16T10:24:18.5870421+10:00:Thread#0:T:done: SmokeKimSteps.WhenISearchForAnOrganisationAndClickOnIt() (5.9s)
2019-05-16T10:24:24.7147707+10:00:Thread#0:B:And I add a new service and fill in details and submit
2019-05-16T10:24:24.7257793+10:00:Thread#0:B:  --- table step argument ---
2019-05-16T10:24:24.7337859+10:00:Thread#0:B:  | Service Name             | Date Commence | Unit Number | Street        | Street Type | Suburb   | State | Postcode | LGA Code         | Telephone  | Email                               | Title Emergency | Given Name Emergency | Family Name Emergency | Email Emergency         | Position Emergency | Telephone Emergency | Mobile Emergency | Quality Rating |
2019-05-16T10:24:24.7427917+10:00:Thread#0:B:  | Moonee Kids Kindergarten | 01/06/2019    | 2           | Hoddle Street | ALLEY       | Essendon | VIC   | 3040     | Alpine (S) 20110 | 0469347402 | sikka.niharika.n@edumail.vic.gov.au | Mrs             | Niharika             | Sikka                 | niharikasikka@gmail.com | System Admin       | 0469347402          | 0469347402       | Excellent      |
2019-05-16T10:25:53.2242656+10:00:Thread#0:T:done: SmokeKimSteps.WhenIAddANewServiceAndFillInDetailsAndSubmit(<table>) (88.5s)
2019-05-16T10:26:30.2938611+10:00:Thread#0:B:And I go to manage job url and run the services batch job
2019-05-16T10:30:12.2374864+10:00:Thread#0:T:error:   User not on manage jobs page
2019-05-16T10:30:12.2434892+10:00:Thread#0:T:  Expected: True
2019-05-16T10:30:12.2515100+10:00:Thread#0:T:  But was:  False
2019-05-16T10:30:16.6423022+10:00:Thread#0:B:When I login to Kim crm and search for added service
2019-05-16T10:30:16.6473050+10:00:Thread#0:T:skipped because of previous errors
2019-05-16T10:30:18.1548494+10:00:Thread#0:B:And I enter missing data
2019-05-16T10:30:18.1598518+10:00:Thread#0:T:skipped because of previous errors
2019-05-16T10:30:20.1880097+10:00:Thread#0:B:And I complete the pending tasks and approve
2019-05-16T10:30:20.2250353+10:00:Thread#0:T:skipped because of previous errors
